<svg id="INDE-Logo-Member" xmlns="http://www.w3.org/2000/svg" width="140" height="161.231" viewBox="0 0 140 161.231">
  <path id="Path_42" data-name="Path 42" d="M624.392,556.3V670.863l2.237,1.492,64.976,43.317,2.787,1.857,2.787-1.857,64.976-43.317,2.237-1.492V556.3Z" transform="translate(-624.392 -556.298)" fill="#fff"/>
  <path id="Path_43" data-name="Path 43" d="M659.118,626.092l2.787-1.858,2.787,1.858,6.96,4.639,6.96-4.639,13-8.664,2.787-1.858,2.787,1.858,19.955,13.3,6.96-4.639,2.787-1.858,2.787,1.858,29.7,19.8V561.322H629.416v84.571Z" transform="translate(-624.392 -556.298)" fill="#d6001c"/>
  <path id="Path_44" data-name="Path 44" d="M710.879,640.94l3.515-6-20-13.334L665.41,640.94l3.513-5.988-7.019-4.678-32.488,21.658v16.244l64.976,43.317,64.976-43.317V651.931L726.88,630.273Z" transform="translate(-624.392 -556.298)" fill="#003865"/>
  <path id="Path_45" data-name="Path 45" d="M703.089,667.892l-3.179.882,16.141-11.909H700.874l-.161,3.715-6.321-19.451h0l-4.69,14.434,3.483,1.3H672.734l12.277,8.921,2.315-2.911-6.319,19.45,12.278-8.92-2.054-3.1,16.547,12.02Z" transform="translate(-624.392 -556.298)" fill="#ffd100"/>
  <g id="Group_61" data-name="Group 61" transform="translate(-624.392 -556.298)">
    <path id="Path_46" data-name="Path 46" d="M705.947,581.418h-20.1v20.095h20.1a10.047,10.047,0,1,0,0-20.095m0,5.024a5.023,5.023,0,1,1,0,10.047H690.875V586.442Z" fill="#fff"/>
  </g>
  <rect id="Rectangle_53" data-name="Rectangle 53" width="5.024" height="20.096" transform="translate(21.268 25.119)" fill="#fff"/>
  <path id="Path_47" data-name="Path 47" d="M743.124,586.442v-5.024H718v20.1h25.12v-5.024h-20.1v-2.512h20.1v-5.024h-20.1v-2.512Z" transform="translate(-624.392 -556.298)" fill="#fff"/>
  <path id="Path_48" data-name="Path 48" d="M678.316,581.418v16.544l-16.543-16.544H653.2v20.1h5.024V584.971l16.543,16.543h8.577v-20.1Z" transform="translate(-624.392 -556.298)" fill="#fff"/>
</svg>
