<svg id="ICON-CLOSE-GRAY" xmlns="http://www.w3.org/2000/svg" width="28.284" height="28.284" viewBox="0 0 28.284 28.284">
  <g id="Group_652" data-name="Group 652" transform="translate(-3012.275 -7998.792) rotate(45)">
    <rect id="Rectangle_29" data-name="Rectangle 29" width="20" height="2" transform="translate(7807 3516) rotate(90)" fill="#ccc" stroke="rgba(0,0,0,0)" stroke-miterlimit="10" stroke-width="1"/>
    <rect id="Rectangle_29-2" data-name="Rectangle 29" width="20" height="2" transform="translate(7816 3527) rotate(180)" fill="#ccc" stroke="rgba(0,0,0,0)" stroke-miterlimit="10" stroke-width="1"/>
  </g>
</svg>
