<svg xmlns="http://www.w3.org/2000/svg" xmlns:xlink="http://www.w3.org/1999/xlink" viewBox="0 0 20 20">
  <defs>
    <style>
      .cls-1 {
        clip-path: url(#clip-Social-LinkedIn);
      }

      .cls-2 {
        fill: #868686;
      }

      .cls-3 {
        fill: #fff;
      }
    </style>
    <clipPath id="clip-Social-LinkedIn">
      <rect width="20" height="20"/>
    </clipPath>
  </defs>
  <g id="Social-LinkedIn" class="cls-1">
    <path id="Path_37" data-name="Path 37" class="cls-2" d="M10,0A10,10,0,1,0,20,10,9.987,9.987,0,0,0,10,0ZM7.8,14.133H5.4V8H7.733v6.133ZM6.667,7.067H6.6v.067A1.14,1.14,0,0,1,5.4,6V5.933A1.18,1.18,0,0,1,6.667,4.867,1.2,1.2,0,0,1,7.733,5.933,1.069,1.069,0,0,1,6.667,7.067Zm8.6,7.067H12.933V10.867a.933.933,0,1,0-1.867,0v3.267H8.733V8h2.333v.667a3.263,3.263,0,0,1,1.867-.733c1.4,0,2.4,1,2.4,3v3.2Z"/>
  </g>
</svg>
